simulation/qsim/serrure.msim.vcd
$comment
	File created using the following command:
		vcd file serrure.msim.vcd -direction
$end
$date
	Tue Jan 21 23:59:32 2025
$end
$version
	ModelSim Version 10.3d
$end
$timescale
	1ps
$end

$scope module decode_clavier_vlg_vec_tst $end
$var reg 1 ! col1 $end
$var reg 1 " col2 $end
$var reg 1 # col3 $end
$var reg 1 $ col4 $end
$var reg 1 % lig1 $end
$var reg 1 & lig2 $end
$var reg 1 ' lig3 $end
$var reg 1 ( lig4 $end
$var wire 1 ) touche [3] $end
$var wire 1 * touche [2] $end
$var wire 1 + touche [1] $end
$var wire 1 , touche [0] $end
$var wire 1 - sampler $end

$scope module i1 $end
$var wire 1 . gnd $end
$var wire 1 / vcc $end
$var wire 1 0 unknown $end
$var tri1 1 1 devclrn $end
$var tri1 1 2 devpor $end
$var tri1 1 3 devoe $end
$var wire 1 4 ~QUARTUS_CREATED_GND~I_combout $end
$var wire 1 5 ~QUARTUS_CREATED_UNVM~~busy $end
$var wire 1 6 ~QUARTUS_CREATED_ADC1~~eoc $end
$var wire 1 7 ~QUARTUS_CREATED_ADC2~~eoc $end
$var wire 1 8 touche[0]~output_o $end
$var wire 1 9 touche[1]~output_o $end
$var wire 1 : touche[2]~output_o $end
$var wire 1 ; touche[3]~output_o $end
$var wire 1 < col1~input_o $end
$var wire 1 = col4~input_o $end
$var wire 1 > col3~input_o $end
$var wire 1 ? lig3~input_o $end
$var wire 1 @ lig4~input_o $end
$var wire 1 A lig2~input_o $end
$var wire 1 B lig1~input_o $end
$var wire 1 C Equal1~0_combout $end
$var wire 1 D col2~input_o $end
$var wire 1 E Equal1~1_combout $end
$var wire 1 F Equal13~0_combout $end
$var wire 1 G Equal0~1_combout $end
$var wire 1 H Equal8~0_combout $end
$var wire 1 I touche~22_combout $end
$var wire 1 J Equal0~0_combout $end
$var wire 1 K Equal12~0_combout $end
$var wire 1 L Equal2~0_combout $end
$var wire 1 M Equal14~0_combout $end
$var wire 1 N Equal3~0_combout $end
$var wire 1 O Equal11~0_combout $end
$var wire 1 P touche~23_combout $end
$var wire 1 Q Equal5~0_combout $end
$var wire 1 R Equal6~0_combout $end
$var wire 1 S Equal7~0_combout $end
$var wire 1 T touche~43_combout $end
$var wire 1 U Equal3~1_combout $end
$var wire 1 V touche~20_combout $end
$var wire 1 W touche~21_combout $end
$var wire 1 X Equal8~1_combout $end
$var wire 1 Y touche~24_combout $end
$var wire 1 Z touche~25_combout $end
$var wire 1 [ Equal15~0_combout $end
$var wire 1 \ touche~26_combout $end
$var wire 1 ] touche~32_combout $end
$var wire 1 ^ Equal2~1_combout $end
$var wire 1 _ touche~30_combout $end
$var wire 1 ` touche~31_combout $end
$var wire 1 a touche~27_combout $end
$var wire 1 b touche~28_combout $end
$var wire 1 c touche~29_combout $end
$var wire 1 d touche~33_combout $end
$var wire 1 e touche~35_combout $end
$var wire 1 f touche~36_combout $end
$var wire 1 g touche~5_combout $end
$var wire 1 h touche~3_combout $end
$var wire 1 i touche~44_combout $end
$var wire 1 j touche~34_combout $end
$var wire 1 k touche~37_combout $end
$var wire 1 l touche~40_combout $end
$var wire 1 m touche~41_combout $end
$var wire 1 n touche~38_combout $end
$var wire 1 o touche~15_combout $end
$var wire 1 p touche~13_combout $end
$var wire 1 q touche~45_combout $end
$var wire 1 r touche~39_combout $end
$var wire 1 s touche~42_combout $end
$upscope $end
$upscope $end
$enddefinitions $end
#0
$dumpvars
1!
0"
0#
0$
1%
0&
0'
0(
1,
0+
0*
0)
x-
0.
1/
x0
11
12
13
04
z5
z6
z7
18
09
0:
0;
1<
0=
0>
0?
0@
0A
1B
0C
0D
0E
0F
0G
0H
1I
1J
0K
0L
0M
1N
0O
1P
0Q
0R
0S
1T
0U
0V
0W
0X
0Y
0Z
1[
1\
1]
0^
0_
0`
0a
0b
0c
0d
1e
0f
1g
0h
0i
0j
0k
1l
0m
1n
1o
0p
0q
0r
0s
$end
#10000
0!
1"
1#
1$
0%
1&
1'
1(
1@
1?
1A
0B
1=
1>
1D
0<
0-
0o
0g
0N
0J
0[
1U
1p
1h
0p
0h
0U
1f
1a
1`
1V
0\
08
0`
0V
1c
1W
0,
0W
1Z
0Z
1\
18
1,
0\
08
0,
#20000
1!
0"
0#
0$
1%
0&
0'
0(
0@
0?
0A
1B
0=
0>
0D
1<
1-
1o
1g
1N
1J
1[
0f
0a
1\
18
0c
1,
#30000
0!
1"
1#
1$
0%
1&
1'
1(
1@
1?
1A
0B
1=
1>
1D
0<
0-
0o
0g
0N
0J
0[
1U
1p
1h
0p
0h
0U
1f
1a
1`
1V
0\
08
0`
0V
1c
1W
0,
0W
1Z
0Z
1\
18
1,
0\
08
0,
#40000
1!
0"
0#
0$
1%
0&
0'
0(
0@
0?
0A
1B
0=
0>
0D
1<
1-
1o
1g
1N
1J
1[
0f
0a
1\
18
0c
1,
#50000
0!
1"
1#
1$
0%
1&
1'
1(
1@
1?
1A
0B
1=
1>
1D
0<
0-
0o
0g
0N
0J
0[
1U
1p
1h
0p
0h
0U
1f
1a
1`
1V
0\
08
0`
0V
1c
1W
0,
0W
1Z
0Z
1\
18
1,
0\
08
0,
#60000
1!
0"
0#
0$
1%
0&
0'
0(
0@
0?
0A
1B
0=
0>
0D
1<
1-
1o
1g
1N
1J
1[
0f
0a
1\
18
0c
1,
#70000
0!
1"
1#
1$
0%
1&
1'
1(
1@
1?
1A
0B
1=
1>
1D
0<
0-
0o
0g
0N
0J
0[
1U
1p
1h
0p
0h
0U
1f
1a
1`
1V
0\
08
0`
0V
1c
1W
0,
0W
1Z
0Z
1\
18
1,
0\
08
0,
#80000
1!
0"
0#
0$
1%
0&
0'
0(
0@
0?
0A
1B
0=
0>
0D
1<
1-
1o
1g
1N
1J
1[
0f
0a
1\
18
0c
1,
#90000
0!
1"
1#
1$
0%
1&
1'
1(
1@
1?
1A
0B
1=
1>
1D
0<
0-
0o
0g
0N
0J
0[
1U
1p
1h
0p
0h
0U
1f
1a
1`
1V
0\
08
0`
0V
1c
1W
0,
0W
1Z
0Z
1\
18
1,
0\
08
0,
#100000
1!
0"
0#
0$
1%
0&
0'
0(
0@
0?
0A
1B
0=
0>
0D
1<
1-
1o
1g
1N
1J
1[
0f
0a
1\
18
0c
1,
#110000
0!
1"
1#
1$
0%
1&
1'
1(
1@
1?
1A
0B
1=
1>
1D
0<
0-
0o
0g
0N
0J
0[
1U
1p
1h
0p
0h
0U
1f
1a
1`
1V
0\
08
0`
0V
1c
1W
0,
0W
1Z
0Z
1\
18
1,
0\
08
0,
#120000
1!
0"
0#
0$
1%
0&
0'
0(
0@
0?
0A
1B
0=
0>
0D
1<
1-
1o
1g
1N
1J
1[
0f
0a
1\
18
0c
1,
#130000
0!
1"
1#
1$
0%
1&
1'
1(
1@
1?
1A
0B
1=
1>
1D
0<
0-
0o
0g
0N
0J
0[
1U
1p
1h
0p
0h
0U
1f
1a
1`
1V
0\
08
0`
0V
1c
1W
0,
0W
1Z
0Z
1\
18
1,
0\
08
0,
#140000
1!
0"
0#
0$
1%
0&
0'
0(
0@
0?
0A
1B
0=
0>
0D
1<
1-
1o
1g
1N
1J
1[
0f
0a
1\
18
0c
1,
#150000
0!
1"
1#
1$
0%
1&
1'
1(
1@
1?
1A
0B
1=
1>
1D
0<
0-
0o
0g
0N
0J
0[
1U
1p
1h
0p
0h
0U
1f
1a
1`
1V
0\
08
0`
0V
1c
1W
0,
0W
1Z
0Z
1\
18
1,
0\
08
0,
#160000
1!
0"
0#
0$
1%
0&
0'
0(
0@
0?
0A
1B
0=
0>
0D
1<
1-
1o
1g
1N
1J
1[
0f
0a
1\
18
0c
1,
#170000
0!
1"
1#
1$
0%
1&
1'
1(
1@
1?
1A
0B
1=
1>
1D
0<
0-
0o
0g
0N
0J
0[
1U
1p
1h
0p
0h
0U
1f
1a
1`
1V
0\
08
0`
0V
1c
1W
0,
0W
1Z
0Z
1\
18
1,
0\
08
0,
#180000
1!
0"
0#
0$
1%
0&
0'
0(
0@
0?
0A
1B
0=
0>
0D
1<
1-
1o
1g
1N
1J
1[
0f
0a
1\
18
0c
1,
#190000
0!
1"
1#
1$
0%
1&
1'
1(
1@
1?
1A
0B
1=
1>
1D
0<
0-
0o
0g
0N
0J
0[
1U
1p
1h
0p
0h
0U
1f
1a
1`
1V
0\
08
0`
0V
1c
1W
0,
0W
1Z
0Z
1\
18
1,
0\
08
0,
#200000
1!
0"
0#
0$
1%
0&
0'
0(
0@
0?
0A
1B
0=
0>
0D
1<
1-
1o
1g
1N
1J
1[
0f
0a
1\
18
0c
1,
#210000
0!
1"
1#
1$
0%
1&
1'
1(
1@
1?
1A
0B
1=
1>
1D
0<
0-
0o
0g
0N
0J
0[
1U
1p
1h
0p
0h
0U
1f
1a
1`
1V
0\
08
0`
0V
1c
1W
0,
0W
1Z
0Z
1\
18
1,
0\
08
0,
#220000
1!
0"
0#
0$
1%
0&
0'
0(
0@
0?
0A
1B
0=
0>
0D
1<
1-
1o
1g
1N
1J
1[
0f
0a
1\
18
0c
1,
#230000
0!
1"
1#
1$
0%
1&
1'
1(
1@
1?
1A
0B
1=
1>
1D
0<
0-
0o
0g
0N
0J
0[
1U
1p
1h
0p
0h
0U
1f
1a
1`
1V
0\
08
0`
0V
1c
1W
0,
0W
1Z
0Z
1\
18
1,
0\
08
0,
#240000
1!
0"
0#
0$
1%
0&
0'
0(
0@
0?
0A
1B
0=
0>
0D
1<
1-
1o
1g
1N
1J
1[
0f
0a
1\
18
0c
1,
#250000
0!
1"
1#
1$
0%
1&
1'
1(
1@
1?
1A
0B
1=
1>
1D
0<
0-
0o
0g
0N
0J
0[
1U
1p
1h
0p
0h
0U
1f
1a
1`
1V
0\
08
0`
0V
1c
1W
0,
0W
1Z
0Z
1\
18
1,
0\
08
0,
#260000
1!
0"
0#
0$
1%
0&
0'
0(
0@
0?
0A
1B
0=
0>
0D
1<
1-
1o
1g
1N
1J
1[
0f
0a
1\
18
0c
1,
#270000
0!
1"
1#
1$
0%
1&
1'
1(
1@
1?
1A
0B
1=
1>
1D
0<
0-
0o
0g
0N
0J
0[
1U
1p
1h
0p
0h
0U
1f
1a
1`
1V
0\
08
0`
0V
1c
1W
0,
0W
1Z
0Z
1\
18
1,
0\
08
0,
#280000
1!
0"
0#
0$
1%
0&
0'
0(
0@
0?
0A
1B
0=
0>
0D
1<
1-
1o
1g
1N
1J
1[
0f
0a
1\
18
0c
1,
#290000
0!
1"
1#
1$
0%
1&
1'
1(
1@
1?
1A
0B
1=
1>
1D
0<
0-
0o
0g
0N
0J
0[
1U
1p
1h
0p
0h
0U
1f
1a
1`
1V
0\
08
0`
0V
1c
1W
0,
0W
1Z
0Z
1\
18
1,
0\
08
0,
#300000
1!
0"
0#
0$
1%
0&
0'
0(
0@
0?
0A
1B
0=
0>
0D
1<
1-
1o
1g
1N
1J
1[
0f
0a
1\
18
0c
1,
#310000
0!
1"
1#
1$
0%
1&
1'
1(
1@
1?
1A
0B
1=
1>
1D
0<
0-
0o
0g
0N
0J
0[
1U
1p
1h
0p
0h
0U
1f
1a
1`
1V
0\
08
0`
0V
1c
1W
0,
0W
1Z
0Z
1\
18
1,
0\
08
0,
#320000
1!
0"
0#
0$
1%
0&
0'
0(
0@
0?
0A
1B
0=
0>
0D
1<
1-
1o
1g
1N
1J
1[
0f
0a
1\
18
0c
1,
#330000
0!
1"
1#
1$
0%
1&
1'
1(
1@
1?
1A
0B
1=
1>
1D
0<
0-
0o
0g
0N
0J
0[
1U
1p
1h
0p
0h
0U
1f
1a
1`
1V
0\
08
0`
0V
1c
1W
0,
0W
1Z
0Z
1\
18
1,
0\
08
0,
#340000
1!
0"
0#
0$
1%
0&
0'
0(
0@
0?
0A
1B
0=
0>
0D
1<
1-
1o
1g
1N
1J
1[
0f
0a
1\
18
0c
1,
#350000
0!
1"
1#
1$
0%
1&
1'
1(
1@
1?
1A
0B
1=
1>
1D
0<
0-
0o
0g
0N
0J
0[
1U
1p
1h
0p
0h
0U
1f
1a
1`
1V
0\
08
0`
0V
1c
1W
0,
0W
1Z
0Z
1\
18
1,
0\
08
0,
#360000
1!
0"
0#
0$
1%
0&
0'
0(
0@
0?
0A
1B
0=
0>
0D
1<
1-
1o
1g
1N
1J
1[
0f
0a
1\
18
0c
1,
#370000
0!
1"
1#
1$
0%
1&
1'
1(
1@
1?
1A
0B
1=
1>
1D
0<
0-
0o
0g
0N
0J
0[
1U
1p
1h
0p
0h
0U
1f
1a
1`
1V
0\
08
0`
0V
1c
1W
0,
0W
1Z
0Z
1\
18
1,
0\
08
0,
#380000
1!
0"
0#
0$
1%
0&
0'
0(
0@
0?
0A
1B
0=
0>
0D
1<
1-
1o
1g
1N
1J
1[
0f
0a
1\
18
0c
1,
#390000
0!
1"
1#
1$
0%
1&
1'
1(
1@
1?
1A
0B
1=
1>
1D
0<
0-
0o
0g
0N
0J
0[
1U
1p
1h
0p
0h
0U
1f
1a
1`
1V
0\
08
0`
0V
1c
1W
0,
0W
1Z
0Z
1\
18
1,
0\
08
0,
#400000
1!
0"
0#
0$
1%
0&
0'
0(
0@
0?
0A
1B
0=
0>
0D
1<
1-
1o
1g
1N
1J
1[
0f
0a
1\
18
0c
1,
#410000
0!
1"
1#
1$
0%
1&
1'
1(
1@
1?
1A
0B
1=
1>
1D
0<
0-
0o
0g
0N
0J
0[
1U
1p
1h
0p
0h
0U
1f
1a
1`
1V
0\
08
0`
0V
1c
1W
0,
0W
1Z
0Z
1\
18
1,
0\
08
0,
#420000
1!
0"
0#
0$
1%
0&
0'
0(
0@
0?
0A
1B
0=
0>
0D
1<
1-
1o
1g
1N
1J
1[
0f
0a
1\
18
0c
1,
#430000
0!
1"
1#
1$
0%
1&
1'
1(
1@
1?
1A
0B
1=
1>
1D
0<
0-
0o
0g
0N
0J
0[
1U
1p
1h
0p
0h
0U
1f
1a
1`
1V
0\
08
0`
0V
1c
1W
0,
0W
1Z
0Z
1\
18
1,
0\
08
0,
#440000
1!
0"
0#
0$
1%
0&
0'
0(
0@
0?
0A
1B
0=
0>
0D
1<
1-
1o
1g
1N
1J
1[
0f
0a
1\
18
0c
1,
#450000
0!
1"
1#
1$
0%
1&
1'
1(
1@
1?
1A
0B
1=
1>
1D
0<
0-
0o
0g
0N
0J
0[
1U
1p
1h
0p
0h
0U
1f
1a
1`
1V
0\
08
0`
0V
1c
1W
0,
0W
1Z
0Z
1\
18
1,
0\
08
0,
#460000
1!
0"
0#
0$
1%
0&
0'
0(
0@
0?
0A
1B
0=
0>
0D
1<
1-
1o
1g
1N
1J
1[
0f
0a
1\
18
0c
1,
#470000
0!
1"
1#
1$
0%
1&
1'
1(
1@
1?
1A
0B
1=
1>
1D
0<
0-
0o
0g
0N
0J
0[
1U
1p
1h
0p
0h
0U
1f
1a
1`
1V
0\
08
0`
0V
1c
1W
0,
0W
1Z
0Z
1\
18
1,
0\
08
0,
#480000
1!
0"
0#
0$
1%
0&
0'
0(
0@
0?
0A
1B
0=
0>
0D
1<
1-
1o
1g
1N
1J
1[
0f
0a
1\
18
0c
1,
#490000
0!
1"
1#
1$
0%
1&
1'
1(
1@
1?
1A
0B
1=
1>
1D
0<
0-
0o
0g
0N
0J
0[
1U
1p
1h
0p
0h
0U
1f
1a
1`
1V
0\
08
0`
0V
1c
1W
0,
0W
1Z
0Z
1\
18
1,
0\
08
0,
#500000
1!
0"
0#
0$
1%
0&
0'
0(
0@
0?
0A
1B
0=
0>
0D
1<
1-
1o
1g
1N
1J
1[
0f
0a
1\
18
0c
1,
#510000
0!
1"
1#
1$
0%
1&
1'
1(
1@
1?
1A
0B
1=
1>
1D
0<
0-
0o
0g
0N
0J
0[
1U
1p
1h
0p
0h
0U
1f
1a
1`
1V
0\
08
0`
0V
1c
1W
0,
0W
1Z
0Z
1\
18
1,
0\
08
0,
#520000
1!
0"
0#
0$
1%
0&
0'
0(
0@
0?
0A
1B
0=
0>
0D
1<
1-
1o
1g
1N
1J
1[
0f
0a
1\
18
0c
1,
#530000
0!
1"
1#
1$
0%
1&
1'
1(
1@
1?
1A
0B
1=
1>
1D
0<
0-
0o
0g
0N
0J
0[
1U
1p
1h
0p
0h
0U
1f
1a
1`
1V
0\
08
0`
0V
1c
1W
0,
0W
1Z
0Z
1\
18
1,
0\
08
0,
#540000
1!
0"
0#
0$
1%
0&
0'
0(
0@
0?
0A
1B
0=
0>
0D
1<
1-
1o
1g
1N
1J
1[
0f
0a
1\
18
0c
1,
#550000
0!
1"
1#
1$
0%
1&
1'
1(
1@
1?
1A
0B
1=
1>
1D
0<
0-
0o
0g
0N
0J
0[
1U
1p
1h
0p
0h
0U
1f
1a
1`
1V
0\
08
0`
0V
1c
1W
0,
0W
1Z
0Z
1\
18
1,
0\
08
0,
#560000
1!
0"
0#
0$
1%
0&
0'
0(
0@
0?
0A
1B
0=
0>
0D
1<
1-
1o
1g
1N
1J
1[
0f
0a
1\
18
0c
1,
#570000
0!
1"
1#
1$
0%
1&
1'
1(
1@
1?
1A
0B
1=
1>
1D
0<
0-
0o
0g
0N
0J
0[
1U
1p
1h
0p
0h
0U
1f
1a
1`
1V
0\
08
0`
0V
1c
1W
0,
0W
1Z
0Z
1\
18
1,
0\
08
0,
#580000
1!
0"
0#
0$
1%
0&
0'
0(
0@
0?
0A
1B
0=
0>
0D
1<
1-
1o
1g
1N
1J
1[
0f
0a
1\
18
0c
1,
#590000
0!
1"
1#
1$
0%
1&
1'
1(
1@
1?
1A
0B
1=
1>
1D
0<
0-
0o
0g
0N
0J
0[
1U
1p
1h
0p
0h
0U
1f
1a
1`
1V
0\
08
0`
0V
1c
1W
0,
0W
1Z
0Z
1\
18
1,
0\
08
0,
#600000
1!
0"
0#
0$
1%
0&
0'
0(
0@
0?
0A
1B
0=
0>
0D
1<
1-
1o
1g
1N
1J
1[
0f
0a
1\
18
0c
1,
#610000
0!
1"
1#
1$
0%
1&
1'
1(
1@
1?
1A
0B
1=
1>
1D
0<
0-
0o
0g
0N
0J
0[
1U
1p
1h
0p
0h
0U
1f
1a
1`
1V
0\
08
0`
0V
1c
1W
0,
0W
1Z
0Z
1\
18
1,
0\
08
0,
#620000
1!
0"
0#
0$
1%
0&
0'
0(
0@
0?
0A
1B
0=
0>
0D
1<
1-
1o
1g
1N
1J
1[
0f
0a
1\
18
0c
1,
#630000
0!
1"
1#
1$
0%
1&
1'
1(
1@
1?
1A
0B
1=
1>
1D
0<
0-
0o
0g
0N
0J
0[
1U
1p
1h
0p
0h
0U
1f
1a
1`
1V
0\
08
0`
0V
1c
1W
0,
0W
1Z
0Z
1\
18
1,
0\
08
0,
#640000
1!
0"
0#
0$
1%
0&
0'
0(
0@
0?
0A
1B
0=
0>
0D
1<
1-
1o
1g
1N
1J
1[
0f
0a
1\
18
0c
1,
#650000
0!
1"
1#
1$
0%
1&
1'
1(
1@
1?
1A
0B
1=
1>
1D
0<
0-
0o
0g
0N
0J
0[
1U
1p
1h
0p
0h
0U
1f
1a
1`
1V
0\
08
0`
0V
1c
1W
0,
0W
1Z
0Z
1\
18
1,
0\
08
0,
#660000
1!
0"
0#
0$
1%
0&
0'
0(
0@
0?
0A
1B
0=
0>
0D
1<
1-
1o
1g
1N
1J
1[
0f
0a
1\
18
0c
1,
#670000
0!
1"
1#
1$
0%
1&
1'
1(
1@
1?
1A
0B
1=
1>
1D
0<
0-
0o
0g
0N
0J
0[
1U
1p
1h
0p
0h
0U
1f
1a
1`
1V
0\
08
0`
0V
1c
1W
0,
0W
1Z
0Z
1\
18
1,
0\
08
0,
#680000
1!
0"
0#
0$
1%
0&
0'
0(
0@
0?
0A
1B
0=
0>
0D
1<
1-
1o
1g
1N
1J
1[
0f
0a
1\
18
0c
1,
#690000
0!
1"
1#
1$
0%
1&
1'
1(
1@
1?
1A
0B
1=
1>
1D
0<
0-
0o
0g
0N
0J
0[
1U
1p
1h
0p
0h
0U
1f
1a
1`
1V
0\
08
0`
0V
1c
1W
0,
0W
1Z
0Z
1\
18
1,
0\
08
0,
#700000
1!
0"
0#
0$
1%
0&
0'
0(
0@
0?
0A
1B
0=
0>
0D
1<
1-
1o
1g
1N
1J
1[
0f
0a
1\
18
0c
1,
#710000
0!
1"
1#
1$
0%
1&
1'
1(
1@
1?
1A
0B
1=
1>
1D
0<
0-
0o
0g
0N
0J
0[
1U
1p
1h
0p
0h
0U
1f
1a
1`
1V
0\
08
0`
0V
1c
1W
0,
0W
1Z
0Z
1\
18
1,
0\
08
0,
#720000
1!
0"
0#
0$
1%
0&
0'
0(
0@
0?
0A
1B
0=
0>
0D
1<
1-
1o
1g
1N
1J
1[
0f
0a
1\
18
0c
1,
#730000
0!
1"
1#
1$
0%
1&
1'
1(
1@
1?
1A
0B
1=
1>
1D
0<
0-
0o
0g
0N
0J
0[
1U
1p
1h
0p
0h
0U
1f
1a
1`
1V
0\
08
0`
0V
1c
1W
0,
0W
1Z
0Z
1\
18
1,
0\
08
0,
#740000
1!
0"
0#
0$
1%
0&
0'
0(
0@
0?
0A
1B
0=
0>
0D
1<
1-
1o
1g
1N
1J
1[
0f
0a
1\
18
0c
1,
#750000
0!
1"
1#
1$
0%
1&
1'
1(
1@
1?
1A
0B
1=
1>
1D
0<
0-
0o
0g
0N
0J
0[
1U
1p
1h
0p
0h
0U
1f
1a
1`
1V
0\
08
0`
0V
1c
1W
0,
0W
1Z
0Z
1\
18
1,
0\
08
0,
#760000
1!
0"
0#
0$
1%
0&
0'
0(
0@
0?
0A
1B
0=
0>
0D
1<
1-
1o
1g
1N
1J
1[
0f
0a
1\
18
0c
1,
#770000
0!
1"
1#
1$
0%
1&
1'
1(
1@
1?
1A
0B
1=
1>
1D
0<
0-
0o
0g
0N
0J
0[
1U
1p
1h
0p
0h
0U
1f
1a
1`
1V
0\
08
0`
0V
1c
1W
0,
0W
1Z
0Z
1\
18
1,
0\
08
0,
#780000
1!
0"
0#
0$
1%
0&
0'
0(
0@
0?
0A
1B
0=
0>
0D
1<
1-
1o
1g
1N
1J
1[
0f
0a
1\
18
0c
1,
#790000
0!
1"
1#
1$
0%
1&
1'
1(
1@
1?
1A
0B
1=
1>
1D
0<
0-
0o
0g
0N
0J
0[
1U
1p
1h
0p
0h
0U
1f
1a
1`
1V
0\
08
0`
0V
1c
1W
0,
0W
1Z
0Z
1\
18
1,
0\
08
0,
#800000
1!
0"
0#
0$
1%
0&
0'
0(
0@
0?
0A
1B
0=
0>
0D
1<
1-
1o
1g
1N
1J
1[
0f
0a
1\
18
0c
1,
#810000
0!
1"
1#
1$
0%
1&
1'
1(
1@
1?
1A
0B
1=
1>
1D
0<
0-
0o
0g
0N
0J
0[
1U
1p
1h
0p
0h
0U
1f
1a
1`
1V
0\
08
0`
0V
1c
1W
0,
0W
1Z
0Z
1\
18
1,
0\
08
0,
#820000
1!
0"
0#
0$
1%
0&
0'
0(
0@
0?
0A
1B
0=
0>
0D
1<
1-
1o
1g
1N
1J
1[
0f
0a
1\
18
0c
1,
#830000
0!
1"
1#
1$
0%
1&
1'
1(
1@
1?
1A
0B
1=
1>
1D
0<
0-
0o
0g
0N
0J
0[
1U
1p
1h
0p
0h
0U
1f
1a
1`
1V
0\
08
0`
0V
1c
1W
0,
0W
1Z
0Z
1\
18
1,
0\
08
0,
#840000
1!
0"
0#
0$
1%
0&
0'
0(
0@
0?
0A
1B
0=
0>
0D
1<
1-
1o
1g
1N
1J
1[
0f
0a
1\
18
0c
1,
#850000
0!
1"
1#
1$
0%
1&
1'
1(
1@
1?
1A
0B
1=
1>
1D
0<
0-
0o
0g
0N
0J
0[
1U
1p
1h
0p
0h
0U
1f
1a
1`
1V
0\
08
0`
0V
1c
1W
0,
0W
1Z
0Z
1\
18
1,
0\
08
0,
#860000
1!
0"
0#
0$
1%
0&
0'
0(
0@
0?
0A
1B
0=
0>
0D
1<
1-
1o
1g
1N
1J
1[
0f
0a
1\
18
0c
1,
#870000
0!
1"
1#
1$
0%
1&
1'
1(
1@
1?
1A
0B
1=
1>
1D
0<
0-
0o
0g
0N
0J
0[
1U
1p
1h
0p
0h
0U
1f
1a
1`
1V
0\
08
0`
0V
1c
1W
0,
0W
1Z
0Z
1\
18
1,
0\
08
0,
#880000
1!
0"
0#
0$
1%
0&
0'
0(
0@
0?
0A
1B
0=
0>
0D
1<
1-
1o
1g
1N
1J
1[
0f
0a
1\
18
0c
1,
#890000
0!
1"
1#
1$
0%
1&
1'
1(
1@
1?
1A
0B
1=
1>
1D
0<
0-
0o
0g
0N
0J
0[
1U
1p
1h
0p
0h
0U
1f
1a
1`
1V
0\
08
0`
0V
1c
1W
0,
0W
1Z
0Z
1\
18
1,
0\
08
0,
#900000
1!
0"
0#
0$
1%
0&
0'
0(
0@
0?
0A
1B
0=
0>
0D
1<
1-
1o
1g
1N
1J
1[
0f
0a
1\
18
0c
1,
#910000
0!
1"
1#
1$
0%
1&
1'
1(
1@
1?
1A
0B
1=
1>
1D
0<
0-
0o
0g
0N
0J
0[
1U
1p
1h
0p
0h
0U
1f
1a
1`
1V
0\
08
0`
0V
1c
1W
0,
0W
1Z
0Z
1\
18
1,
0\
08
0,
#920000
1!
0"
0#
0$
1%
0&
0'
0(
0@
0?
0A
1B
0=
0>
0D
1<
1-
1o
1g
1N
1J
1[
0f
0a
1\
18
0c
1,
#930000
0!
1"
1#
1$
0%
1&
1'
1(
1@
1?
1A
0B
1=
1>
1D
0<
0-
0o
0g
0N
0J
0[
1U
1p
1h
0p
0h
0U
1f
1a
1`
1V
0\
08
0`
0V
1c
1W
0,
0W
1Z
0Z
1\
18
1,
0\
08
0,
#940000
1!
0"
0#
0$
1%
0&
0'
0(
0@
0?
0A
1B
0=
0>
0D
1<
1-
1o
1g
1N
1J
1[
0f
0a
1\
18
0c
1,
#950000
0!
1"
1#
1$
0%
1&
1'
1(
1@
1?
1A
0B
1=
1>
1D
0<
0-
0o
0g
0N
0J
0[
1U
1p
1h
0p
0h
0U
1f
1a
1`
1V
0\
08
0`
0V
1c
1W
0,
0W
1Z
0Z
1\
18
1,
0\
08
0,
#960000
1!
0"
0#
0$
1%
0&
0'
0(
0@
0?
0A
1B
0=
0>
0D
1<
1-
1o
1g
1N
1J
1[
0f
0a
1\
18
0c
1,
#970000
0!
1"
1#
1$
0%
1&
1'
1(
1@
1?
1A
0B
1=
1>
1D
0<
0-
0o
0g
0N
0J
0[
1U
1p
1h
0p
0h
0U
1f
1a
1`
1V
0\
08
0`
0V
1c
1W
0,
0W
1Z
0Z
1\
18
1,
0\
08
0,
#980000
1!
0"
0#
0$
1%
0&
0'
0(
0@
0?
0A
1B
0=
0>
0D
1<
1-
1o
1g
1N
1J
1[
0f
0a
1\
18
0c
1,
#990000
0!
1"
1#
1$
0%
1&
1'
1(
1@
1?
1A
0B
1=
1>
1D
0<
0-
0o
0g
0N
0J
0[
1U
1p
1h
0p
0h
0U
1f
1a
1`
1V
0\
08
0`
0V
1c
1W
0,
0W
1Z
0Z
1\
18
1,
0\
08
0,
